{
    "features": [
        {
            "id": "7142047390424612198",
            "reference_num": "DEMO-30",
            "name": "Share places of interest in Italy",
            "created_at": "2022-09-11T09:11:33.044Z",
            "url": "https://paloalto-networks.aha.io/features/DEMO-30",
            "resource": "https://paloalto-networks.aha.io/api/v1/features/DEMO-30",
            "product_id": "7142047389388652071"
        },
        {
            "id": "7142047390531708532",
            "reference_num": "DEMO-31",
            "name": "Replace getting started guide",
            "created_at": "2022-09-11T09:11:33.047Z",
            "url": "https://paloalto-networks.aha.io/features/DEMO-31",
            "resource": "https://paloalto-networks.aha.io/api/v1/features/DEMO-31",
            "product_id": "7142047389388652071"
        },
        {
            "id": "7142047390632056703",
            "reference_num": "DEMO-32",
            "name": "Syndicate cycling route data",
            "created_at": "2022-09-11T09:11:33.050Z",
            "url": "https://paloalto-networks.aha.io/features/DEMO-32",
            "resource": "https://paloalto-networks.aha.io/api/v1/features/DEMO-32",
            "product_id": "7142047389388652071"
        },
        {
            "id": "7142047390735728152",
            "reference_num": "DEMO-33",
            "name": "Highlight supporting Local Bike Shops (LBS)",
            "created_at": "2022-09-11T09:11:33.054Z",
            "url": "https://paloalto-networks.aha.io/features/DEMO-33",
            "resource": "https://paloalto-networks.aha.io/api/v1/features/DEMO-33",
            "product_id": "7142047389388652071"
        },
        {
            "id": "7142047391302799387",
            "reference_num": "DEMO-18",
            "name": "Add search",
            "created_at": "2022-09-11T09:11:33.084Z",
            "url": "https://paloalto-networks.aha.io/features/DEMO-18",
            "resource": "https://paloalto-networks.aha.io/api/v1/features/DEMO-18",
            "product_id": "7142047389388652071"
        },
        {
            "id": "7142047391426988618",
            "reference_num": "DEMO-19",
            "name": "Fan photos of the day",
            "created_at": "2022-09-11T09:11:33.093Z",
            "url": "https://paloalto-networks.aha.io/features/DEMO-19",
            "resource": "https://paloalto-networks.aha.io/api/v1/features/DEMO-19",
            "product_id": "7142047389388652071"
        },
        {
            "id": "7142047391560611099",
            "reference_num": "DEMO-20",
            "name": "Daily sponsor sweepstakes",
            "created_at": "2022-09-11T09:11:33.103Z",
            "url": "https://paloalto-networks.aha.io/features/DEMO-20",
            "resource": "https://paloalto-networks.aha.io/api/v1/features/DEMO-20",
            "product_id": "7142047389388652071"
        },
        {
            "id": "7142047391662656696",
            "reference_num": "DEMO-21",
            "name": "Integrate Twitter stream",
            "created_at": "2022-09-11T09:11:33.112Z",
            "url": "https://paloalto-networks.aha.io/features/DEMO-21",
            "resource": "https://paloalto-networks.aha.io/api/v1/features/DEMO-21",
            "product_id": "7142047389388652071"
        },
        {
            "id": "7142047391784205052",
            "reference_num": "DEMO-22",
            "name": "Spectator guide download",
            "created_at": "2022-09-11T09:11:33.121Z",
            "url": "https://paloalto-networks.aha.io/features/DEMO-22",
            "resource": "https://paloalto-networks.aha.io/api/v1/features/DEMO-22",
            "product_id": "7142047389388652071"
        },
        {
            "id": "7142047391896840633",
            "reference_num": "DEMO-23",
            "name": "Real-time leaderboard",
            "created_at": "2022-09-11T09:11:33.130Z",
            "url": "https://paloalto-networks.aha.io/features/DEMO-23",
            "resource": "https://paloalto-networks.aha.io/api/v1/features/DEMO-23",
            "product_id": "7142047389388652071"
        },
        {
            "id": "7142047392023514613",
            "reference_num": "DEMO-24",
            "name": "Sponsor marketplace",
            "created_at": "2022-09-11T09:11:33.139Z",
            "url": "https://paloalto-networks.aha.io/features/DEMO-24",
            "resource": "https://paloalto-networks.aha.io/api/v1/features/DEMO-24",
            "product_id": "7142047389388652071"
        },
        {
            "id": "7142047392122545708",
            "reference_num": "DEMO-25",
            "name": "Tour de California history",
            "created_at": "2022-09-11T09:11:33.148Z",
            "url": "https://paloalto-networks.aha.io/features/DEMO-25",
            "resource": "https://paloalto-networks.aha.io/api/v1/features/DEMO-25",
            "product_id": "7142047389388652071"
        },
        {
            "id": "7142047392245812759",
            "reference_num": "DEMO-26",
            "name": "Add section to showcase the Lifestyle Festival that precedes every stage",
            "created_at": "2022-09-11T09:11:33.157Z",
            "url": "https://paloalto-networks.aha.io/features/DEMO-26",
            "resource": "https://paloalto-networks.aha.io/api/v1/features/DEMO-26",
            "product_id": "7142047389388652071"
        },
        {
            "id": "7142047392360387838",
            "reference_num": "DEMO-27",
            "name": "Drilldown maps with stage details",
            "created_at": "2022-09-11T09:11:33.166Z",
            "url": "https://paloalto-networks.aha.io/features/DEMO-27",
            "resource": "https://paloalto-networks.aha.io/api/v1/features/DEMO-27",
            "product_id": "7142047389388652071"
        },
        {
            "id": "7142047392483496354",
            "reference_num": "DEMO-28",
            "name": "TV coverage",
            "created_at": "2022-09-11T09:11:33.177Z",
            "url": "https://paloalto-networks.aha.io/features/DEMO-28",
            "resource": "https://paloalto-networks.aha.io/api/v1/features/DEMO-28",
            "product_id": "7142047389388652071"
        },
        {
            "id": "7142047392592128442",
            "reference_num": "DEMO-29",
            "name": "Athlete profiles",
            "created_at": "2022-09-11T09:11:33.186Z",
            "url": "https://paloalto-networks.aha.io/features/DEMO-29",
            "resource": "https://paloalto-networks.aha.io/api/v1/features/DEMO-29",
            "product_id": "7142047389388652071"
        },
        {
            "id": "7142047393121670680",
            "reference_num": "DEMO-10",
            "name": "Push based weather alerts",
            "created_at": "2022-09-11T09:11:33.224Z",
            "url": "https://paloalto-networks.aha.io/features/DEMO-10",
            "resource": "https://paloalto-networks.aha.io/api/v1/features/DEMO-10",
            "product_id": "7142047389388652071"
        },
        {
            "id": "7142047393266955921",
            "reference_num": "DEMO-11",
            "name": "Navigation for safest routes",
            "created_at": "2022-09-11T09:11:33.233Z",
            "url": "https://paloalto-networks.aha.io/features/DEMO-11",
            "resource": "https://paloalto-networks.aha.io/api/v1/features/DEMO-11",
            "product_id": "7142047389388652071"
        },
        {
            "id": "7142047393380785895",
            "reference_num": "DEMO-12",
            "name": "Track my friends in real-time",
            "created_at": "2022-09-11T09:11:33.242Z",
            "url": "https://paloalto-networks.aha.io/features/DEMO-12",
            "resource": "https://paloalto-networks.aha.io/api/v1/features/DEMO-12",
            "product_id": "7142047389388652071"
        },
        {
            "id": "7142047393776407641",
            "reference_num": "DEMO-13",
            "name": "Save \"Start\" and \"Finish\" and automatically start/stop tracking",
            "created_at": "2022-09-11T09:11:33.251Z",
            "url": "https://paloalto-networks.aha.io/features/DEMO-13",
            "resource": "https://paloalto-networks.aha.io/api/v1/features/DEMO-13",
            "product_id": "7142047389388652071"
        },
        {
            "id": "7142047393968727822",
            "reference_num": "DEMO-14",
            "name": "Remind users when to fuel during their rides",
            "created_at": "2022-09-11T09:11:33.260Z",
            "url": "https://paloalto-networks.aha.io/features/DEMO-14",
            "resource": "https://paloalto-networks.aha.io/api/v1/features/DEMO-14",
            "product_id": "7142047389388652071"
        },
        {
            "id": "7142047394113597672",
            "reference_num": "DEMO-15",
            "name": "Notify my network when I win a KOM",
            "created_at": "2022-09-11T09:11:33.269Z",
            "url": "https://paloalto-networks.aha.io/features/DEMO-15",
            "resource": "https://paloalto-networks.aha.io/api/v1/features/DEMO-15",
            "product_id": "7142047389388652071"
        },
        {
            "id": "7142047394277215189",
            "reference_num": "DEMO-16",
            "name": "Track required maintenance",
            "created_at": "2022-09-11T09:11:33.279Z",
            "url": "https://paloalto-networks.aha.io/features/DEMO-16",
            "resource": "https://paloalto-networks.aha.io/api/v1/features/DEMO-16",
            "product_id": "7142047389388652071"
        },
        {
            "id": "7142047394412668057",
            "reference_num": "DEMO-17",
            "name": "Allow a user to give another Kudos",
            "created_at": "2022-09-11T09:11:33.288Z",
            "url": "https://paloalto-networks.aha.io/features/DEMO-17",
            "resource": "https://paloalto-networks.aha.io/api/v1/features/DEMO-17",
            "product_id": "7142047389388652071"
        },
        {
            "id": "7142047394970620644",
            "reference_num": "DEMO-4",
            "name": "Live dashboard",
            "created_at": "2022-09-11T09:11:33.325Z",
            "url": "https://paloalto-networks.aha.io/features/DEMO-4",
            "resource": "https://paloalto-networks.aha.io/api/v1/features/DEMO-4",
            "product_id": "7142047389388652071"
        },
        {
            "id": "7142047395096480701",
            "reference_num": "DEMO-5",
            "name": "Store live interviews",
            "created_at": "2022-09-11T09:11:33.334Z",
            "url": "https://paloalto-networks.aha.io/features/DEMO-5",
            "resource": "https://paloalto-networks.aha.io/api/v1/features/DEMO-5",
            "product_id": "7142047389388652071"
        },
        {
            "id": "7142047395215377332",
            "reference_num": "DEMO-6",
            "name": "Live video feed",
            "created_at": "2022-09-11T09:11:33.343Z",
            "url": "https://paloalto-networks.aha.io/features/DEMO-6",
            "resource": "https://paloalto-networks.aha.io/api/v1/features/DEMO-6",
            "product_id": "7142047389388652071"
        },
        {
            "id": "7142047395324100394",
            "reference_num": "DEMO-7",
            "name": "Language options",
            "created_at": "2022-09-11T09:11:33.352Z",
            "url": "https://paloalto-networks.aha.io/features/DEMO-7",
            "resource": "https://paloalto-networks.aha.io/api/v1/features/DEMO-7",
            "product_id": "7142047389388652071"
        },
        {
            "id": "7142047395448397628",
            "reference_num": "DEMO-8",
            "name": "Highlight tour stages",
            "created_at": "2022-09-11T09:11:33.361Z",
            "url": "https://paloalto-networks.aha.io/features/DEMO-8",
            "resource": "https://paloalto-networks.aha.io/api/v1/features/DEMO-8",
            "product_id": "7142047389388652071"
        },
        {
            "id": "7142047395548138907",
            "reference_num": "DEMO-9",
            "name": "Top level navigation",
            "created_at": "2022-09-11T09:11:33.370Z",
            "url": "https://paloalto-networks.aha.io/features/DEMO-9",
            "resource": "https://paloalto-networks.aha.io/api/v1/features/DEMO-9",
            "product_id": "7142047389388652071"
        }
    ],
    "pagination": {
        "total_records": 34,
        "total_pages": 2,
        "current_page": 1
    }
}