{
    "ideas": [
        {
            "id": "7172566722654275503",
            "reference_num": "DEMO-I-3078",
            "name": "Create an alert exception command for XDR integration",
            "created_at": "2022-12-02T15:02:06.684Z",
            "updated_at": "2022-12-02T15:32:15.214Z",
            "workflow_status": {
                "id": "6836873525456343266",
                "name": "Request Received",
                "position": 1,
                "complete": false,
                "color": "#c1e39d"
            },
            "description": {
                "id": "7172566723341028779",
                "body": "<p>Some analysts needs to add regularly alerts exception in XDR, based on CGO for the behavioral threat protection module. It should be nice if we could do that with a command in XSOAR with the Palo Alto Networks Cortex XDR - Investigation and Response integration.</p>",
                "created_at": "2022-12-02T15:02:06.844Z",
                "attachments": []
            }
        },
        {
            "id": "7172551313548762563",
            "reference_num": "DEMO-I-3077",
            "name": "Adding MFA feature on local admin account. only",
            "created_at": "2022-12-02T14:02:18.971Z",
            "updated_at": "2022-12-02T19:27:20.486Z",
            "workflow_status": {
                "id": "6836873525456343266",
                "name": "Request Received",
                "position": 1,
                "complete": false,
                "color": "#c1e39d"
            },
            "description": {
                "id": "7172551313663237690",
                "body": "<p>Hello,</p><p>We would like to see a new feature in order to enforce security on the default full admin account.</p><p>We enforced SSO on our platform and the last account to secure is the default one and for now, it is not possible to enforce MFA only on it.</p><p>The idea would be to allow the possibility to use any MFA solution like Microsoft Authenticator or Google Authenticator, and to select on which account it needs to be applied.</p>",
                "created_at": "2022-12-02T14:02:18.998Z",
                "attachments": []
            }
        },
        {
            "id": "7172480677120868256",
            "reference_num": "DEMO-I-3076",
            "name": "Ability to amend the color of the favicons",
            "created_at": "2022-12-02T09:28:12.646Z",
            "updated_at": "2022-12-03T01:24:37.165Z",
            "workflow_status": {
                "id": "6836873525456343266",
                "name": "Request Received",
                "position": 1,
                "complete": false,
                "color": "#c1e39d"
            },
            "description": {
                "id": "7172480677226219366",
                "body": "<p>Ability to amend the color of the favicons to identify environments when logged into several at the same time.</p>",
                "created_at": "2022-12-02T09:28:12.671Z",
                "attachments": []
            }
        },
        {
            "id": "7172305193792846103",
            "reference_num": "DEMO-I-3075",
            "name": "Include a creation timestamp for API Keys",
            "created_at": "2022-12-01T22:07:14.749Z",
            "updated_at": "2022-12-03T01:24:30.489Z",
            "workflow_status": {
                "id": "6836873525456343266",
                "name": "Request Received",
                "position": 1,
                "complete": false,
                "color": "#c1e39d"
            },
            "description": {
                "id": "7172305193907051640",
                "body": "<p>It would be helpful to see a timestamp of when an API key was created in XSOAR.</p>",
                "created_at": "2022-12-01T22:07:14.776Z",
                "attachments": []
            }
        }
    ],
    "pagination": {
        "total_records": 3021,
        "total_pages": 101,
        "current_page": 1
    }
}