{"ideas": [{"id": "7173715343044346703", "name": "Crowdstrike connector with keyvault", "reference_num": "FR-I-3080", "created_at": "2022-12-05T17:19:20.704Z", "product_id": "6836114877834670881"}, {"id": "7172566722654275503", "name": "Create an alert exception command for XDR integration", "reference_num": "FR-I-3078", "created_at": "2022-12-02T15:02:06.684Z", "product_id": "6836114877834670881"}, {"id": "7173721418484833547", "name": "ServiceNow Integration Hub integration for XSOAR w/ access to CMDB", "reference_num": "FR-I-3081", "created_at": "2022-12-05T17:42:55.255Z", "product_id": "6836114877834670881"}, {"id": "7173692833257078630", "name": "Integration with Accenture MDR Platform", "reference_num": "FR-I-3079", "created_at": "2022-12-05T15:51:59.743Z", "product_id": "6836114877834670881"}, {"id": "7172551313548762563", "name": "Adding MFA feature on local admin account. only", "reference_num": "FR-I-3077", "created_at": "2022-12-02T14:02:18.971Z", "product_id": "6836114877834670881"}, {"id": "7172480677120868256", "name": "Ability to amend the color of the favicons", "reference_num": "FR-I-3076", "created_at": "2022-12-02T09:28:12.646Z", "product_id": "6836114877834670881"}, {"id": "7172305193792846103", "name": "Include a creation timestamp for API Keys", "reference_num": "FR-I-3075", "created_at": "2022-12-01T22:07:14.749Z", "product_id": "6836114877834670881"}, {"id": "7171502302517557860", "name": "Add \"outlook mail category/tag\" field in output of mail-fetching procedures", "reference_num": "FR-I-3070", "created_at": "2022-11-29T18:11:37.057Z", "product_id": "6836114877834670881"}, {"id": "7172294138046666224", "name": "Increase Speed of Content Install via Content Repo", "reference_num": "FR-I-3074", "created_at": "2022-12-01T21:24:20.630Z", "product_id": "6836114877834670881"}, {"id": "7171451854319990423", "name": "Rapid7 InsightAppSec integration", "reference_num": "FR-I-3069", "created_at": "2022-11-29T14:55:51.173Z", "product_id": "6836114877834670881"}, {"id": "7170919214905762858", "name": "I want to search the active indicator with expiration date ( ex. expiration:>=2022-11-01 and expirationStatus:active)", "reference_num": "FR-I-3064", "created_at": "2022-11-28T04:28:56.394Z", "product_id": "6836114877834670881"}, {"id": "7155773601278697461", "name": "Enable integration for Microsoft Defender for Identity", "reference_num": "FR-I-2976", "created_at": "2022-10-18T08:56:13.426Z", "product_id": "6836114877834670881"}, {"id": "7171263979119673869", "name": "Import/export Jobs", "reference_num": "FR-I-3067", "created_at": "2022-11-29T02:46:48.064Z", "product_id": "6836114877834670881"}, {"id": "7163663032229877130", "name": "Extending the capabilites of tabs sections and items from Layouts ", "reference_num": "FR-I-3020", "created_at": "2022-11-08T15:11:14.711Z", "product_id": "6836114877834670881"}, {"id": "7171963961780553630", "name": "Create a StopTask Command", "reference_num": "FR-I-3073", "created_at": "2022-12-01T00:03:05.480Z", "product_id": "6836114877834670881"}, {"id": "7171029318428122707", "name": "Support Basic IOA/IOC Search command Using Mandiant Advantage Package", "reference_num": "FR-I-3065", "created_at": "2022-11-28T11:36:11.865Z", "product_id": "6836114877834670881"}, {"id": "7169920515254848984", "name": "[PAN-OS]Improved output results of pan-os-platform-get-ha-state", "reference_num": "FR-I-3063", "created_at": "2022-11-25T11:53:28.510Z", "product_id": "6836114877834670881"}, {"id": "7161125852546981021", "name": "True Load balancing", "reference_num": "FR-I-3009", "created_at": "2022-11-01T19:05:41.531Z", "product_id": "6836114877834670881"}, {"id": "7161078612518974363", "name": "Ability to grant individual user incident access when RBAC fields are assigned", "reference_num": "FR-I-3008", "created_at": "2022-11-01T16:02:22.607Z", "product_id": "6836114877834670881"}, {"id": "7098322629890196024", "name": "Pop up Notification feature", "reference_num": "FR-I-2592", "created_at": "2022-05-16T13:17:06.778Z", "product_id": "6836114877834670881"}, {"id": "7161490553462115129", "name": "Add generic lookback methods to the Crowdstrike Falcon integration", "reference_num": "FR-I-3013", "created_at": "2022-11-02T18:40:55.083Z", "product_id": "6836114877834670881"}, {"id": "6886049170968188218", "name": "Document all server configuration options", "reference_num": "FR-I-450", "created_at": "2020-10-21T12:27:40.705Z", "product_id": "6836114877834670881"}, {"id": "7155875341622842545", "name": "Support Cross-tenant Authentication for MSSPs on MS 365 Defender Integration", "reference_num": "FR-I-2978", "created_at": "2022-10-18T15:31:01.695Z", "product_id": "6836114877834670881"}, {"id": "7169195619082979933", "name": "Debugging SetPlaybooks", "reference_num": "FR-I-3060", "created_at": "2022-11-23T13:00:30.468Z", "product_id": "6836114877834670881"}, {"id": "7171839188821643777", "name": "Add Illumio to the marketplace", "reference_num": "FR-I-3072", "created_at": "2022-11-30T15:58:54.511Z", "product_id": "6836114877834670881"}, {"id": "7171691296918290011", "name": "LogPoint Director Console API Integration", "reference_num": "FR-I-3071", "created_at": "2022-11-30T06:25:00.745Z", "product_id": "6836114877834670881"}, {"id": "7168873559567719289", "name": "Webex Teams Notifications", "reference_num": "FR-I-3058", "created_at": "2022-11-22T16:10:45.143Z", "product_id": "6836114877834670881"}, {"id": "7168774789352795282", "name": "Detail for Import playbook with warning", "reference_num": "FR-I-3056", "created_at": "2022-11-22T09:47:28.412Z", "product_id": "6836114877834670881"}, {"id": "7168579045582566681", "name": "Manage Dev Repo - Limit the available Types users can push from Local Changes", "reference_num": "FR-I-3054", "created_at": "2022-11-21T21:07:53.263Z", "product_id": "6836114877834670881"}, {"id": "7168486060717034686", "name": "Perform /task/form/submit API with tag as task ID", "reference_num": "FR-I-3053", "created_at": "2022-11-21T15:07:03.540Z", "product_id": "6836114877834670881"}], "pagination": {"total_records": 3024, "total_pages": 101, "current_page": 1}}
