{
    "alerts": [
      {
        "id": "TET-1953443",
        "entity": "http://test-doppel.com",
        "brand": "test",
        "queue_state": "doppel_review",
        "entity_state": "active",
        "severity": "medium",
        "product": "domains",
        "platform": "domains",
        "source": "Analyst Upload",
        "notes": null,
        "created_at": "2025-01-27T07:55:10.063742",
        "doppel_link": "https://app.doppel.com/alerts/TET-1953443",
        "entity_content": {
          "root_domain": {
            "domain": "test-doppel.com",
            "registrar": null,
            "ip_address": null,
            "country_code": null,
            "hosting_provider": null,
            "contact_email": null,
            "mx_records": [],
            "nameservers": []
          }
        },
        "audit_logs": [
          {
            "timestamp": "2025-01-27T07:55:01.834979",
            "type": "alert_create",
            "value": "needs_review",
            "changed_by": "Doppel",
            "metadata": {}
          }
        ],
        "tags": [],
        "uploaded_by": "Doppel"
      },
      {
        "id": "TET-1953444",
        "entity": "http://test-doppel.com",
        "brand": "test",
        "queue_state": "doppel_review",
        "entity_state": "active",
        "severity": "medium",
        "product": "domains",
        "platform": "domains",
        "source": "Analyst Upload",
        "notes": null,
        "created_at": "2025-01-28T07:55:10.063742",
        "doppel_link": "https://app.doppel.com/alerts/TET-1953444",
        "entity_content": {
          "root_domain": {
            "domain": "test-doppel.com",
            "registrar": null,
            "ip_address": null,
            "country_code": null,
            "hosting_provider": null,
            "contact_email": null,
            "mx_records": [],
            "nameservers": []
          }
        },
        "audit_logs": [
          {
            "timestamp": "2025-01-27T07:55:01.834979",
            "type": "alert_create",
            "value": "needs_review",
            "changed_by": "Doppel",
            "metadata": {}
          }
        ],
        "tags": [],
        "uploaded_by": "Doppel"
      },
      {
        "id": "TET-1953445",
        "entity": "http://test-doppel.com",
        "brand": "test",
        "queue_state": "doppel_review",
        "entity_state": "active",
        "severity": "medium",
        "product": "domains",
        "platform": "domains",
        "source": "Analyst Upload",
        "notes": null,
        "created_at": "2025-01-29T07:55:10.063742",
        "doppel_link": "https://app.doppel.com/alerts/TET-1953445",
        "entity_content": {
          "root_domain": {
            "domain": "test-doppel.com",
            "registrar": null,
            "ip_address": null,
            "country_code": null,
            "hosting_provider": null,
            "contact_email": null,
            "mx_records": [],
            "nameservers": []
          }
        },
        "audit_logs": [
          {
            "timestamp": "2025-01-27T07:55:01.834979",
            "type": "alert_create",
            "value": "needs_review",
            "changed_by": "Doppel",
            "metadata": {}
          }
        ],
        "tags": [],
        "uploaded_by": "Doppel"
      }
    ],
    "metadata": {
      "count": 1950308,
      "page": 0,
      "total_pages": 65011,
      "page_size": 30
    }
  }