{
  "api_response": {
    "items": [
      {
        "id": "INC-34",
        "title": "High Risk Alerts: Reporting Engine ",
        "summary": "",
        "priority": "Critical",
        "riskScore": 90,
        "status": "New",
        "alertCount": 1,
        "averageAlertRiskScore": 90,
        "sealed": true,
        "totalRemediationTaskCount": 0,
        "openRemediationTaskCount": 0,
        "created": "2021-06-23T11:52:18.394Z",
        "lastUpdated": "2021-06-23T11:52:18.394Z",
        "lastUpdatedBy": null,
        "assignee": null,
        "sources": [
          "Reporting Engine"
        ],
        "ruleId": "5f5b2cf0a4977d45d166e3eb",
        "firstAlertTime": "2021-06-23T11:52:15Z",
        "categories": [],
        "journalEntries": [
          {
            "id": "1",
            "author": "Admin",
            "notes": "Adding a Test Note",
            "created": "2021-07-28T13:56:38.533Z",
            "lastUpdated": "2021-07-28T13:56:38.534Z",
            "milestone": "Containment"
          },
          {
            "id": "2",
            "author": "Admin",
            "notes": "Adding a Test Note",
            "created": "2021-07-28T13:56:38.795Z",
            "lastUpdated": "2021-07-28T13:56:38.795Z",
            "milestone": "Containment"
          }
        ],
        "createdBy": "High Risk Alerts: Reporting Engine",
        "deletedAlertCount": 0,
        "eventCount": 6
      },
      {
        "id": "INC-33",
        "title": "High Risk Alerts: Reporting Engine",
        "summary": "",
        "priority": "Critical",
        "riskScore": 90,
        "status": "New",
        "alertCount": 1,
        "averageAlertRiskScore": 90,
        "sealed": true,
        "totalRemediationTaskCount": 0,
        "openRemediationTaskCount": 0,
        "created": "2021-06-18T06:38:17.260Z",
        "lastUpdated": "2021-06-18T06:38:17.260Z",
        "lastUpdatedBy": null,
        "assignee": null,
        "sources": [
          "Reporting Engine"
        ],
        "ruleId": "123",
        "firstAlertTime": "2021-06-18T06:38:15Z",
        "categories": [],
        "journalEntries": null,
        "createdBy": "High Risk Alerts: Reporting Engine",
        "deletedAlertCount": 0,
        "eventCount": 3
      }
    ],
    "pageNumber": 0,
    "pageSize": 2,
    "totalPages": 12,
    "totalItems": 24,
    "hasNext": true,
    "hasPrevious": false
  },
  "results": [
      {
        "id": "INC-34",
        "title": "High Risk Alerts: Reporting Engine ",
        "summary": "",
        "priority": "Critical",
        "riskScore": 90,
        "status": "New",
        "alertCount": 1,
        "averageAlertRiskScore": 90,
        "sealed": true,
        "totalRemediationTaskCount": 0,
        "openRemediationTaskCount": 0,
        "created": "2021-06-23T11:52:18.394Z",
        "lastUpdated": "2021-06-23T11:52:18.394Z",
        "lastUpdatedBy": null,
        "assignee": null,
        "sources": [
          "Reporting Engine"
        ],
        "ruleId": "5f5b2cf0a4977d45d166e3eb",
        "firstAlertTime": "2021-06-23T11:52:15Z",
        "categories": [],
        "journalEntries": [
          {
            "id": "1",
            "author": "Admin",
            "notes": "Adding a Test Note",
            "created": "2021-07-28T13:56:38.533Z",
            "lastUpdated": "2021-07-28T13:56:38.534Z",
            "milestone": "Containment"
          },
          {
            "id": "2",
            "author": "Admin",
            "notes": "Adding a Test Note",
            "created": "2021-07-28T13:56:38.795Z",
            "lastUpdated": "2021-07-28T13:56:38.795Z",
            "milestone": "Containment"
          }
        ],
        "createdBy": "High Risk Alerts: Reporting Engine",
        "deletedAlertCount": 0,
        "eventCount": 6
      },
      {
        "id": "INC-33",
        "title": "High Risk Alerts: Reporting Engine",
        "summary": "",
        "priority": "Critical",
        "riskScore": 90,
        "status": "New",
        "alertCount": 1,
        "averageAlertRiskScore": 90,
        "sealed": true,
        "totalRemediationTaskCount": 0,
        "openRemediationTaskCount": 0,
        "created": "2021-06-18T06:38:17.260Z",
        "lastUpdated": "2021-06-18T06:38:17.260Z",
        "lastUpdatedBy": null,
        "assignee": null,
        "sources": [
          "Reporting Engine"
        ],
        "ruleId": "123",
        "firstAlertTime": "2021-06-18T06:38:15Z",
        "categories": [],
        "journalEntries": null,
        "createdBy": "High Risk Alerts: Reporting Engine",
        "deletedAlertCount": 0,
        "eventCount": 3
      }
    ]
  }