{
  "PassiveTotal.Observation(val.cveId == obj.cveId)": {
    "asset": [
      {
        "type": "HOST",
        "name": "riskiq.app",
        "firstSeen": "2018-05-11 20:40:17",
        "lastSeen": "2021-09-16 13:57:16"
      },
      {
        "type": "HOST",
        "name": "www.riskiq.app",
        "firstSeen": "2018-06-30 00:03:32",
        "lastSeen": "2021-09-15 19:36:38"
      }
    ],
    "cveId": "CVE-2021-23017",
    "cwe": [
      {
        "cweId": "CWE-193"
      }
    ]
  },
  "PassiveTotal.Summary.Observation(val.name == obj.name)": {
    "name": "pt-list-my-attack-surface-observations",
    "totalCount": 124,
    "totalPages": 62,
    "nextPage": "https://api.pt.net/pt/v2/attack-surface/vuln-intel/cves/CVE-2021-23017/observations?page=1&size=2"
  }
}
