{"page_1_response": {
    "status": "success",
    "logs": [
        {
            "_id": "id0",
            "incident_start_time": "2021-06-01T00:00:00"
        },
        {
            "_id": "id1",
            "incident_start_time": "2021-06-01T00:00:00"
        },
        {
            "_id": "id2",
            "incident_start_time": "2021-06-01T00:00:00"
        },
        {
            "_id": "id3",
            "incident_start_time": "2021-06-01T00:00:00"
        },
        {
            "_id": "id4",
            "incident_start_time": "2021-06-01T00:00:00"
        },
        {
            "_id": "id5",
            "incident_start_time": "2021-06-01T00:00:00"
        },
        {
            "_id": "id6",
            "incident_start_time": "2021-06-01T00:00:00"
        },
        {
            "_id": "id7",
            "incident_start_time": "2021-06-01T00:00:00"
        },
        {
            "_id": "id8",
            "incident_start_time": "2021-06-01T00:00:00"
        },
        {
            "_id": "id9",
            "incident_start_time": "2021-06-01T00:00:00"
        },
        {
            "_id": "id10",
            "incident_start_time": "2021-06-01T00:00:00"
        },
        {
            "_id": "id11",
            "incident_start_time": "2021-06-01T00:00:00"
        },
        {
            "_id": "id12",
            "incident_start_time": "2021-06-01T00:00:00"
        },
        {
            "_id": "id13",
            "incident_start_time": "2021-06-01T00:00:00"
        },
        {
            "_id": "id14",
            "incident_start_time": "2021-06-01T00:00:00"
        },
        {
            "_id": "id15",
            "incident_start_time": "2021-06-01T00:00:00"
        },
        {
            "_id": "id16",
            "incident_start_time": "2021-06-01T00:00:00"
        },
        {
            "_id": "id17",
            "incident_start_time": "2021-06-01T00:00:00"
        },
        {
            "_id": "id18",
            "incident_start_time": "2021-06-01T00:00:00"
        },
        {
            "_id": "id19",
            "incident_start_time": "2021-06-01T00:00:00"
        },
        {
            "_id": "id20",
            "incident_start_time": "2021-06-01T00:00:00"
        }
    ],
    "meta": {
        "limit": 1000,
        "total": 3572,
        "from": 0
    },
    "next_url": "http://some_mock_url.com/incident"
},
    "page_2_response":{
    "status": "success",
    "logs": [
        {
            "_id": "id21",
            "incident_start_time": "2021-06-01T00:00:00"
        },
        {
            "_id": "id22",
            "incident_start_time": "2021-06-01T00:00:00"
        },
        {
            "_id": "id23",
            "incident_start_time": "2021-06-01T00:00:00"
        },
        {
            "_id": "id24",
            "incident_start_time": "2021-06-01T00:00:00"
        },
        {
            "_id": "id25",
            "incident_start_time": "2021-06-01T00:00:00"
        },
        {
            "_id": "id26",
            "incident_start_time": "2021-06-01T00:00:00"
        },
        {
            "_id": "id27",
            "incident_start_time": "2021-06-01T00:00:00"
        },
        {
            "_id": "id28",
            "incident_start_time": "2021-06-01T00:00:00"
        },
        {
            "_id": "id29",
            "incident_start_time": "2021-06-01T00:00:00"
        },
        {
            "_id": "id30",
            "incident_start_time": "2021-06-01T00:00:00"
        },
        {
            "_id": "id31",
            "incident_start_time": "2021-06-01T00:00:00"
        },
        {
            "_id": "id32",
            "incident_start_time": "2021-06-30T18:08:42"
        },
        {
            "_id": "id33",
            "incident_start_time": "2021-06-30T18:13:39"
        },
        {
            "_id": "id34",
            "incident_start_time": "2021-06-30T19:08:38"
        },
        {
            "_id": "id35",
            "incident_start_time": "2021-06-30T20:07:42"
        },
        {
            "_id": "id36",
            "incident_start_time": "2021-06-30T21:08:17"
        },
        {
            "_id": "id37",
            "incident_start_time": "2021-06-30T22:07:52"
        },
        {
            "_id": "id38",
            "incident_start_time": "2021-06-30T22:28:41"
        },
        {
            "_id": "id39",
            "incident_start_time": "2021-06-30T23:08:59"
        },
        {
            "_id": "id40",
            "incident_start_time": "2021-07-01T00:07:47"
        },
        {
            "_id": "id41",
            "incident_start_time": "2021-07-01T01:07:11"
        }
    ],
    "meta": {
        "limit": 1000,
        "total": 3572,
        "from": 20
    },
    "next_url": "http://some_mock_url.com/incident"
},
"expected_last_run": {},
"expected_event_list": [  
    {
        "_id": "id0",
        "incident_start_time": "2021-06-01T00:00:00",
        "_time": "2021-06-01T00:00:00",
        "type": "Detect incident"
    },
    {
        "_id": "id1",
        "incident_start_time": "2021-06-01T00:00:00",
        "_time": "2021-06-01T00:00:00",
        "type": "Detect incident"
    },
    {
        "_id": "id2",
        "incident_start_time": "2021-06-01T00:00:00",
        "_time": "2021-06-01T00:00:00",
        "type": "Detect incident"
    },
    {
        "_id": "id3",
        "incident_start_time": "2021-06-01T00:00:00",
        "_time": "2021-06-01T00:00:00",
        "type": "Detect incident"
    },
    {
        "_id": "id4",
        "incident_start_time": "2021-06-01T00:00:00",
        "_time": "2021-06-01T00:00:00",
        "type": "Detect incident"
    },
    {
        "_id": "id5",
        "incident_start_time": "2021-06-01T00:00:00",
        "_time": "2021-06-01T00:00:00",
        "type": "Detect incident"
    },
    {
        "_id": "id6",
        "incident_start_time": "2021-06-01T00:00:00",
        "_time": "2021-06-01T00:00:00",
        "type": "Detect incident"
    },
    {
        "_id": "id7",
        "incident_start_time": "2021-06-01T00:00:00",
        "_time": "2021-06-01T00:00:00",
        "type": "Detect incident"
    },
    {
        "_id": "id8",
        "incident_start_time": "2021-06-01T00:00:00",
        "_time": "2021-06-01T00:00:00",
        "type": "Detect incident"
    },
    {
        "_id": "id9",
        "incident_start_time": "2021-06-01T00:00:00",
        "_time": "2021-06-01T00:00:00",
        "type": "Detect incident"
    },
    {
        "_id": "id10",
        "incident_start_time": "2021-06-01T00:00:00",
        "_time": "2021-06-01T00:00:00",
        "type": "Detect incident"
    },
    {
        "_id": "id11",
        "incident_start_time": "2021-06-01T00:00:00",
        "_time": "2021-06-01T00:00:00",
        "type": "Detect incident"
    },
    {
        "_id": "id12",
        "incident_start_time": "2021-06-01T00:00:00",
        "_time": "2021-06-01T00:00:00",
        "type": "Detect incident"
    },
    {
        "_id": "id13",
        "incident_start_time": "2021-06-01T00:00:00",
        "_time": "2021-06-01T00:00:00",
        "type": "Detect incident"
    },
    {
        "_id": "id14",
        "incident_start_time": "2021-06-01T00:00:00",
        "_time": "2021-06-01T00:00:00",
        "type": "Detect incident"
    },
    {
        "_id": "id15",
        "incident_start_time": "2021-06-01T00:00:00",
        "_time": "2021-06-01T00:00:00",
        "type": "Detect incident"
    },
    {
        "_id": "id16",
        "incident_start_time": "2021-06-01T00:00:00",
        "_time": "2021-06-01T00:00:00",
        "type": "Detect incident"
    },
    {
        "_id": "id17",
        "incident_start_time": "2021-06-01T00:00:00",
        "_time": "2021-06-01T00:00:00",
        "type": "Detect incident"
    },
    {
        "_id": "id18",
        "incident_start_time": "2021-06-01T00:00:00",
        "_time": "2021-06-01T00:00:00",
        "type": "Detect incident"
    },
    {
        "_id": "id19",
        "incident_start_time": "2021-06-01T00:00:00",
        "_time": "2021-06-01T00:00:00",
        "type": "Detect incident"
    },
    {
        "_id": "id20",
        "incident_start_time": "2021-06-01T00:00:00",
        "_time": "2021-06-01T00:00:00",
        "type": "Detect incident"
    },
    {
        "_id": "id21",
        "incident_start_time": "2021-06-01T00:00:00",
        "_time": "2021-06-01T00:00:00",
        "type": "Detect incident"
    },
    {
        "_id": "id22",
        "incident_start_time": "2021-06-01T00:00:00",
        "_time": "2021-06-01T00:00:00",
        "type": "Detect incident"
    },
    {
        "_id": "id23",
        "incident_start_time": "2021-06-01T00:00:00",
        "_time": "2021-06-01T00:00:00",
        "type": "Detect incident"
    },
    {
        "_id": "id24",
        "incident_start_time": "2021-06-01T00:00:00",
        "_time": "2021-06-01T00:00:00",
        "type": "Detect incident"
    },
    {
        "_id": "id25",
        "incident_start_time": "2021-06-01T00:00:00",
        "_time": "2021-06-01T00:00:00",
        "type": "Detect incident"
    },
    {
        "_id": "id26",
        "incident_start_time": "2021-06-01T00:00:00",
        "_time": "2021-06-01T00:00:00",
        "type": "Detect incident"
    },
    {
        "_id": "id27",
        "incident_start_time": "2021-06-01T00:00:00",
        "_time": "2021-06-01T00:00:00",
        "type": "Detect incident"
    },
    {
        "_id": "id28",
        "incident_start_time": "2021-06-01T00:00:00",
        "_time": "2021-06-01T00:00:00",
        "type": "Detect incident"
    },
    {
        "_id": "id29",
        "incident_start_time": "2021-06-01T00:00:00",
        "_time": "2021-06-01T00:00:00",
        "type": "Detect incident"
    },
    {
        "_id": "id30",
        "incident_start_time": "2021-06-01T00:00:00",
        "_time": "2021-06-01T00:00:00",
        "type": "Detect incident"
    },
    {
        "_id": "id31",
        "incident_start_time": "2021-06-01T00:00:00",
        "_time": "2021-06-01T00:00:00",
        "type": "Detect incident"
    },
    {
        "_id": "id32",
        "incident_start_time": "2021-06-30T18:08:42",
        "_time": "2021-06-30T18:08:42",
        "type": "Detect incident"
    },
    {
        "_id": "id33",
        "incident_start_time": "2021-06-30T18:13:39",
        "_time": "2021-06-30T18:13:39",
        "type": "Detect incident"
    },
    {
        "_id": "id34",
        "incident_start_time": "2021-06-30T19:08:38",
        "_time": "2021-06-30T19:08:38",
        "type": "Detect incident"
    },
    {
        "_id": "id35",
        "incident_start_time": "2021-06-30T20:07:42",
        "_time": "2021-06-30T20:07:42",
        "type": "Detect incident"
    },
    {
        "_id": "id36",
        "incident_start_time": "2021-06-30T21:08:17",
        "_time": "2021-06-30T21:08:17",
        "type": "Detect incident"
    },
    {
        "_id": "id37",
        "incident_start_time": "2021-06-30T22:07:52",
        "_time": "2021-06-30T22:07:52",
        "type": "Detect incident"
    },
    {
        "_id": "id38",
        "incident_start_time": "2021-06-30T22:28:41",
        "_time": "2021-06-30T22:28:41",
        "type": "Detect incident"
    },
    {
        "_id": "id39",
        "incident_start_time": "2021-06-30T23:08:59",
        "_time": "2021-06-30T23:08:59",
        "type": "Detect incident"
    },
    {
        "_id": "id40",
        "incident_start_time": "2021-07-01T00:07:47",
        "_time": "2021-07-01T00:07:47",
        "type": "Detect incident"
    },
    {
        "_id": "id41",
        "incident_start_time": "2021-07-01T01:07:11",
        "_time": "2021-07-01T01:07:11",
        "type": "Detect incident"
    }    
],
"expected_ids_list": 
["id0", "id1", "id2", "id3", "id4", "id5", "id6", "id7", "id8", "id9",
"id10", "id11", "id12", "id13", "id14", "id15", "id16", "id17", "id18",
"id19", "id20", "id21", "id22", "id23", "id24", "id25", "id26", "id27",
"id28", "id29", "id30", "id31", "id32", "id33", "id34", "id35", "id36",
"id37", "id38", "id39", "id40", "id41"]
}