{
  "PassiveTotal.ThirdParty(val.id == obj.id)": {
    "id": 45998,
    "VulnerableComponent": [
      {
        "name": "nginx 1.14.0",
        "type": "Server",
        "severity": "HIGH",
        "count": 109
      },
      {
        "name": "nginx 1.16.1",
        "type": "Server",
        "severity": "HIGH",
        "count": 8
      }
    ]
  },
  "PassiveTotal.Summary.ThirdPartyVulnerableComponent(val.name == obj.name)": {
    "name": "pt-list-third-party-attack-surface-vulnerable-components",
    "totalCount": 25,
    "totalPages": 13,
    "nextPage": "https://api.pt.net/pt/v2/attack-surface/vuln-intel/components?page=1&size=2"
  }
}
