{
    "count": 154,
    "next": "https://hub.docker.com/v2/repositories/demisto/python3/tags?page=2&page_size=10",
    "previous": null,
    "results": [
        {
            "creator": 4824052,
            "id": 627273215,
            "images": [
                {
                    "architecture": "amd64",
                    "features": "",
                    "variant": null,
                    "digest": "sha256:0a6d2069381cba6ff81fdbaf25c466342a6adb9e7a8f9f3e993a27a5c9867401",
                    "os": "linux",
                    "os_features": "",
                    "os_version": null,
                    "size": 26413474,
                    "status": "active",
                    "last_pulled": "2024-04-01T14:18:16.93158Z",
                    "last_pushed": "2024-03-26T00:21:18.549087Z"
                }
            ],
            "last_updated": "2024-03-26T00:21:19.187268Z",
            "last_updater": 4824052,
            "last_updater_username": "containersci",
            "name": "3.10.14.91134",
            "repository": 1546412,
            "full_size": 26413474,
            "v2": true,
            "tag_status": "active",
            "tag_last_pulled": "2024-04-01T14:18:16.93158Z",
            "tag_last_pushed": "2024-03-26T00:21:19.187268Z",
            "media_type": "application/vnd.docker.container.image.v1+json",
            "content_type": "image",
            "digest": "sha256:0a6d2069381cba6ff81fdbaf25c466342a6adb9e7a8f9f3e993a27a5c9867401"
        },
        {
            "creator": 4824052,
            "id": 624768845,
            "images": [
                {
                    "architecture": "amd64",
                    "features": "",
                    "variant": null,
                    "digest": "sha256:cc09bff3600db3e50dbb3e5b7205aa34eec6888aa34f340d65f8929457666929",
                    "os": "linux",
                    "os_features": "",
                    "os_version": null,
                    "size": 26413767,
                    "status": "active",
                    "last_pulled": "2024-04-01T14:20:48.881929Z",
                    "last_pushed": "2024-03-21T00:22:32.594085Z"
                }
            ],
            "last_updated": "2024-03-21T00:22:33.348833Z",
            "last_updater": 4824052,
            "last_updater_username": "containersci",
            "name": "3.10.14.90585",
            "repository": 1546412,
            "full_size": 26413767,
            "v2": true,
            "tag_status": "active",
            "tag_last_pulled": "2024-04-01T14:20:48.881929Z",
            "tag_last_pushed": "2024-03-21T00:22:33.348833Z",
            "media_type": "application/vnd.docker.container.image.v1+json",
            "content_type": "image",
            "digest": "sha256:cc09bff3600db3e50dbb3e5b7205aa34eec6888aa34f340d65f8929457666929"
        },
        {
            "creator": 4824052,
            "id": 623805402,
            "images": [
                {
                    "architecture": "amd64",
                    "features": "",
                    "variant": null,
                    "digest": "sha256:111b1079b8860d7a6070806b71f702e71bb77eaae263918b7821b05a3ae79790",
                    "os": "linux",
                    "os_features": "",
                    "os_version": null,
                    "size": 26411365,
                    "status": "active",
                    "last_pulled": "2024-04-01T14:20:05.644539Z",
                    "last_pushed": "2024-03-19T14:55:59.058158Z"
                }
            ],
            "last_updated": "2024-03-19T14:55:59.748978Z",
            "last_updater": 4824052,
            "last_updater_username": "containersci",
            "name": "3.10.13.90168",
            "repository": 1546412,
            "full_size": 26411365,
            "v2": true,
            "tag_status": "active",
            "tag_last_pulled": "2024-04-01T14:20:05.644539Z",
            "tag_last_pushed": "2024-03-19T14:55:59.748978Z",
            "media_type": "application/vnd.docker.container.image.v1+json",
            "content_type": "image",
            "digest": "sha256:111b1079b8860d7a6070806b71f702e71bb77eaae263918b7821b05a3ae79790"
        },
        {
            "creator": 4824052,
            "id": 622417235,
            "images": [
                {
                    "architecture": "amd64",
                    "features": "",
                    "variant": null,
                    "digest": "sha256:5c5cd1feed1604838c66361b13dc8f0ba80d3048b8cbace3a07563cd9fb4c39a",
                    "os": "linux",
                    "os_features": "",
                    "os_version": null,
                    "size": 26099386,
                    "status": "active",
                    "last_pulled": "2024-04-01T13:46:54.423084Z",
                    "last_pushed": "2024-03-17T00:22:53.149833Z"
                }
            ],
            "last_updated": "2024-03-17T00:22:53.618567Z",
            "last_updater": 4824052,
            "last_updater_username": "containersci",
            "name": "3.10.13.89873",
            "repository": 1546412,
            "full_size": 26099386,
            "v2": true,
            "tag_status": "active",
            "tag_last_pulled": "2024-04-01T13:46:54.423084Z",
            "tag_last_pushed": "2024-03-17T00:22:53.618567Z",
            "media_type": "application/vnd.docker.container.image.v1+json",
            "content_type": "image",
            "digest": "sha256:5c5cd1feed1604838c66361b13dc8f0ba80d3048b8cbace3a07563cd9fb4c39a"
        },
        {
            "creator": 4824052,
            "id": 614687666,
            "images": [
                {
                    "architecture": "amd64",
                    "features": "",
                    "variant": null,
                    "digest": "sha256:068e709045818c1e6f8e5577c2768b97489abb954632901845291e33660eab64",
                    "os": "linux",
                    "os_features": "",
                    "os_version": null,
                    "size": 26473522,
                    "status": "active",
                    "last_pulled": "2024-04-01T13:38:16.141268Z",
                    "last_pushed": "2024-03-04T14:23:16.278825Z"
                }
            ],
            "last_updated": "2024-03-04T14:23:17.054365Z",
            "last_updater": 4824052,
            "last_updater_username": "containersci",
            "name": "3.10.13.89009",
            "repository": 1546412,
            "full_size": 26473522,
            "v2": true,
            "tag_status": "active",
            "tag_last_pulled": "2024-04-01T13:38:16.141268Z",
            "tag_last_pushed": "2024-03-04T14:23:17.054365Z",
            "media_type": "application/vnd.docker.container.image.v1+json",
            "content_type": "image",
            "digest": "sha256:068e709045818c1e6f8e5577c2768b97489abb954632901845291e33660eab64"
        },
        {
            "creator": 4824052,
            "id": 613807101,
            "images": [
                {
                    "architecture": "amd64",
                    "features": "",
                    "variant": null,
                    "digest": "sha256:20e06bbe18b09dcd09a5382874e9bc79d3d10f163d88fd583ce2e7cea9514abd",
                    "os": "linux",
                    "os_features": "",
                    "os_version": null,
                    "size": 26473895,
                    "status": "active",
                    "last_pulled": "2024-04-01T13:29:58.190077Z",
                    "last_pushed": "2024-03-03T12:08:35.597646Z"
                }
            ],
            "last_updated": "2024-03-03T12:08:36.373854Z",
            "last_updater": 4824052,
            "last_updater_username": "containersci",
            "name": "3.10.13.88772",
            "repository": 1546412,
            "full_size": 26473895,
            "v2": true,
            "tag_status": "active",
            "tag_last_pulled": "2024-04-01T13:29:58.190077Z",
            "tag_last_pushed": "2024-03-03T12:08:36.373854Z",
            "media_type": "application/vnd.docker.container.image.v1+json",
            "content_type": "image",
            "digest": "sha256:20e06bbe18b09dcd09a5382874e9bc79d3d10f163d88fd583ce2e7cea9514abd"
        },
        {
            "creator": 4824052,
            "id": 599720239,
            "images": [
                {
                    "architecture": "amd64",
                    "features": "",
                    "variant": null,
                    "digest": "sha256:064e604bc6616b9e8590d6d35edb5e5f580c4485d31ccebf25a4dbb5e4d09536",
                    "os": "linux",
                    "os_features": "",
                    "os_version": null,
                    "size": 26431760,
                    "status": "active",
                    "last_pulled": "2024-04-01T13:35:11.39464Z",
                    "last_pushed": "2024-02-08T00:25:33.006657Z"
                }
            ],
            "last_updated": "2024-02-08T00:25:33.99241Z",
            "last_updater": 4824052,
            "last_updater_username": "containersci",
            "name": "3.10.13.87159",
            "repository": 1546412,
            "full_size": 26431760,
            "v2": true,
            "tag_status": "active",
            "tag_last_pulled": "2024-04-01T13:35:11.39464Z",
            "tag_last_pushed": "2024-02-08T00:25:33.99241Z",
            "media_type": "application/vnd.docker.container.image.v1+json",
            "content_type": "image",
            "digest": "sha256:064e604bc6616b9e8590d6d35edb5e5f580c4485d31ccebf25a4dbb5e4d09536"
        },
        {
            "creator": 4824052,
            "id": 592346058,
            "images": [
                {
                    "architecture": "amd64",
                    "features": "",
                    "variant": null,
                    "digest": "sha256:45a8ed50f866bc18201808dca391393d5bb808fb7e52f6fdf61d4fd75796c955",
                    "os": "linux",
                    "os_features": "",
                    "os_version": null,
                    "size": 26119401,
                    "status": "active",
                    "last_pulled": "2024-04-01T13:38:58.306848Z",
                    "last_pushed": "2024-01-28T00:22:13.650401Z"
                }
            ],
            "last_updated": "2024-01-28T00:22:13.981445Z",
            "last_updater": 4824052,
            "last_updater_username": "containersci",
            "name": "3.10.13.86272",
            "repository": 1546412,
            "full_size": 26119401,
            "v2": true,
            "tag_status": "active",
            "tag_last_pulled": "2024-04-01T13:38:58.306848Z",
            "tag_last_pushed": "2024-01-28T00:22:13.981445Z",
            "media_type": "application/vnd.docker.container.image.v1+json",
            "content_type": "image",
            "digest": "sha256:45a8ed50f866bc18201808dca391393d5bb808fb7e52f6fdf61d4fd75796c955"
        },
        {
            "creator": 4824052,
            "id": 588012167,
            "images": [
                {
                    "architecture": "amd64",
                    "features": "",
                    "variant": null,
                    "digest": "sha256:fb47b5920ceca486f97ae5349ac42682df56b7545453fd012b4d343081118c4a",
                    "os": "linux",
                    "os_features": "",
                    "os_version": null,
                    "size": 28620660,
                    "status": "active",
                    "last_pulled": "2024-04-01T13:43:56.446557Z",
                    "last_pushed": "2024-01-20T00:22:14.896364Z"
                }
            ],
            "last_updated": "2024-01-20T00:22:15.776449Z",
            "last_updater": 4824052,
            "last_updater_username": "containersci",
            "name": "3.10.13.85667",
            "repository": 1546412,
            "full_size": 28620660,
            "v2": true,
            "tag_status": "active",
            "tag_last_pulled": "2024-04-01T13:43:56.446557Z",
            "tag_last_pushed": "2024-01-20T00:22:15.776449Z",
            "media_type": "application/vnd.docker.container.image.v1+json",
            "content_type": "image",
            "digest": "sha256:fb47b5920ceca486f97ae5349ac42682df56b7545453fd012b4d343081118c4a"
        },
        {
            "creator": 4824052,
            "id": 587407222,
            "images": [
                {
                    "architecture": "amd64",
                    "features": "",
                    "variant": null,
                    "digest": "sha256:b9bbb009deb77222680c373e50b2b7ad0b7fceba188ee926221b142b595101a6",
                    "os": "linux",
                    "os_features": "",
                    "os_version": null,
                    "size": 28620629,
                    "status": "active",
                    "last_pulled": "2024-04-01T13:46:22.77678Z",
                    "last_pushed": "2024-01-19T00:22:07.281321Z"
                }
            ],
            "last_updated": "2024-01-19T00:22:07.358407Z",
            "last_updater": 4824052,
            "last_updater_username": "containersci",
            "name": "3.10.13.85415",
            "repository": 1546412,
            "full_size": 28620629,
            "v2": true,
            "tag_status": "active",
            "tag_last_pulled": "2024-04-01T13:46:22.77678Z",
            "tag_last_pushed": "2024-01-19T00:22:07.358407Z",
            "media_type": "application/vnd.docker.container.image.v1+json",
            "content_type": "image",
            "digest": "sha256:b9bbb009deb77222680c373e50b2b7ad0b7fceba188ee926221b142b595101a6"
        }
    ]
}