{
    "count": 6,
    "next": "https://www.example.com/api/extras/journal-entries/?id__gte=0&limit=2&offset=4&ordering=",
    "previous": "https://www.example.com/api/extras/journal-entries/?id__gte=0&limit=2&ordering=",
    "results": [
        {
            "id": 4,
            "url": "https://www.example.com/api/extras/journal-entries/4/",
            "display": "2022-12-04 14:32 ()",
            "assigned_object_type": "dcim.device",
            "assigned_object_id": 4,
            "assigned_object": {
                "id": 4,
                "url": "https://www.example.com/api/dcim/devices/4/",
                "display": "test3",
                "name": "test3"
            },
            "created": "2022-12-04T14:32:47.718968Z",
            "created_by": 1,
            "kind": null,
            "comments": "",
            "tags": [],
            "custom_fields": {},
            "last_updated": "2022-12-04T14:32:47.718991Z"
        },
        {
            "id": 3,
            "url": "https://www.example.com/api/extras/journal-entries/3/",
            "display": "2022-12-04 14:32 ()",
            "assigned_object_type": "dcim.device",
            "assigned_object_id": 4,
            "assigned_object": {
                "id": 4,
                "url": "https://www.example.com/api/dcim/devices/4/",
                "display": "test3",
                "name": "test3"
            },
            "created": "2022-12-04T14:32:45.078318Z",
            "created_by": 1,
            "kind": null,
            "comments": "",
            "tags": [],
            "custom_fields": {},
            "last_updated": "2022-12-04T14:32:45.078352Z"
        }
    ]
}